Social Network Analysis
…
```r
followers_info <- get_followers("WhiteHouse")
```
- `user` = Vector of user names, user IDs, or a mixture of both.

- `n` = Number of tweets to return per timeline. Defaults to 100. Must be of length 1 or equal to length of user.

]

.pull-right[

```
#> # A tibble: 50 x 1
#>    user_id            
#>    <chr>              
#>  1 1085912530587795456
#>  2 1086195886089297920
#>  3 1086195854938128384
#>  4 1086196325874450432
#>  5 2795753592         
#>  6 1080949329454616578
#>  7 1086196398729515008
#>  8 1086193409738575872
#>  9 450976819          
#> 10 1086194021788045312
#> # … with 40 more rows
```
…
